@startuml

namespace com.astro.back {
    namespace repositories {
        interface EventRepository {
        }

        interface ObservationRepository {
        }

        interface PositionRepository {
        }

        interface TagRepository {
        }
    }

    namespace services {
        namespace impl {
            class EventServiceImpl {
            }

            class ObservationServiceImpl {
            }

            class PositionServiceImpl {
            }

            class TagServiceImpl {
            }
        }
    }

    namespace entities {
        class Event {
        }

        class Observation {
        }

        class Position {
        }

        class Tag {
        }
    }
}

com.astro.back.repositories.EventRepository "1" *-- "n" com.astro.back.entities.Event
com.astro.back.repositories.ObservationRepository "1" *-- "n" com.astro.back.entities.Observation
com.astro.back.repositories.PositionRepository "1" *-- "n" com.astro.back.entities.Position
com.astro.back.repositories.TagRepository "1" *-- "n" com.astro.back.entities.Tag

com.astro.back.repositories.EventRepository "1" -down-o "1" com.astro.back.services.impl.EventServiceImpl
com.astro.back.repositories.EventRepository "1" -down-o "1" com.astro.back.services.impl.ObservationServiceImpl
com.astro.back.repositories.ObservationRepository "1" -down-o "1" com.astro.back.services.impl.ObservationServiceImpl
com.astro.back.repositories.PositionRepository "1" -down-o "1" com.astro.back.services.impl.PositionServiceImpl
com.astro.back.repositories.PositionRepository "1" -down-o "1" com.astro.back.services.impl.ObservationServiceImpl
com.astro.back.repositories.TagRepository "1" -down-o "1" com.astro.back.services.impl.TagServiceImpl
com.astro.back.repositories.TagRepository "1" -down-o "1" com.astro.back.services.impl.EventServiceImpl

@enduml
